1,0.5009475274,0.7256314735,0.7330495251,0.7302629172,0.5521805473,0.5940570367,0.4826126769,0.5379783836,0.2294559535,0.5252004898,0.4716161341,0.5031190622,0.4909195375,0.5981140104,0.4880728363,0,0.6936199042,0.7753186544,0.7195234672,0.4414488257,0.6111074561,0.7205758963,0.7087687683,0.4421592129,0.2591009309
0.827842237165822,1,0.8681256789,0.9045294253,0.8608058534,0.7679891856,0.8371051909,0.865083256,0.9139397304,0.6275891768,0.793147556,0.8054790327,0.8139031072,0.8490922037,0.9651891788,0.812123581,0,0.8554480859,0.8451580343,0.9396514496,0.7265012839,0.8327308178,0.8441947701,0,0.7579353515,0
0.818602772366041,0.5858848766,1,0.7991810933,0.7621501015,0.5948088386,0.6890736032,0.6277625478,0.6850063717,0.3726047468,0.5604968673,0.5583089647,0.5387818449,0.6094237774,0.7005381232,0.5169880868,0,0.6193259285,0.8153283016,0.7644426235,0.5220751901,0.7231661028,0.6991288742,0.8784376734,0.5813846253,0.4347405047
0.854559064102586,0.6331505481,0.9129335244,1,0.8565032529,0.6821048434,0.7243525215,0.6512002447,0.6899356127,0.4603448976,0.640192558,0.6025092871,0.6234537885,0.6279775605,0.7528757728,0.6158478585,0,0.7325261596,0.8981874739,0.8177513623,0.5750760714,0.7498539409,0.7950125059,0.8582312204,0.5872337855,0.4282994378
0.959290512679077,0.6798400799,0.8925063438,0.962951723,1,0.7399088275,0.7874315383,0.7108918093,0.7632978532,0.3514830382,0.68502819,0.6737592575,0.6881912121,0.7137838317,0.8165560169,0.667159753,0,0.8804198108,0.9576336981,0.9115290604,0.6335545044,0.8000429681,0.8914358071,1.5318182019,0.6346947832,0.403577835
0.941463404913180,0.8088115266,1.0053230422,1.0100391846,0.953031965,1,0.8831136241,0.8476473487,0.8580234605,0.508671186,0.7409166627,0.7316543396,0.7621565528,0.7970487632,0.9217315276,0.7448173383,0,0.9215361924,0.9772025151,0.9797944856,0.71634167,0.910635706,0.9152337467,1.3557544666,0.746615087,0.620189198
0.869952604416700,0.7785594756,0.9070895271,0.9185376215,0.8915791778,0.7861256014,1,0.7938309515,0.8524528468,0.5133007609,0.7202204016,0.690315763,0.730069746,0.7604929815,0.8719697829,0.7232325298,0,0.8697989716,0.8830108039,0.9607492136,0.6874363784,0.8641220512,0.8620266587,0.9917019546,0.7197312875,0
0.631766459905445,0.7012336298,0.7422283842,0.7292125743,0.7090586724,0.6469888459,0.6997737375,1,0.9231574462,0.4651577251,0.7467447202,0.7497716353,0.75972825,0.8592509941,0.9551226203,0.7564993947,0,0.6843423487,0.6884713306,0.7644108379,0.7422670068,0.6727473373,0.7126378366,1.0963230374,0.7870985973,0.5041693751
0.585213645997886,0.6133651535,0.6784486375,0.6482951364,0.6320946083,0.554131035,0.6338471544,0.7774925222,1,0.3895810386,0.7363024974,0.711004675,0.6747175291,0.7530250417,0.8673598319,0.6898450394,0,0.6198676717,0.6091155276,0.710945394,0.6392178477,0.658440583,0.6576864829,0.8153088147,0.7152996211,0.4817536254
0.776192753789386,0.9303027929,0.9209158202,0.9433357136,1.2136934284,0.8503632648,0.9695833059,1.0687572609,1.4473836844,1,1.5222856922,1.1207566857,0.7330219354,0.8290700693,1.1579733689,1.05705245,0,1.086918524,1.1031614945,1.1390602203,0.8979827751,0.9073643404,1.6704912396,0,1.1841542175,0
0.766370888977502,0.6950251339,0.763390299,0.7463213724,0.7782557117,0.5864153276,0.7060979367,0.8268120674,0.9122058716,0.4720054102,1,0.7993425758,0.7745966324,0.8156924823,0.9007964784,0.8314037432,0,0.7419568146,0.7421588473,0.7914888912,0.6927066918,0.693929566,0.7767296913,0,0.7467148828,0
0.662273947802534,0.6752078974,0.6968385571,0.7237317624,0.7116137156,0.5925866883,0.6491075434,0.783930192,0.9192806974,0.4765698695,0.8414600897,1,0.7434541425,0.8149250458,0.9636873242,0.7866389459,0,0.6631176282,0.7079481966,0.76327315,0.6521048595,0.6721554716,0.7088080127,-0.2322554552,0.7220346088,0.44128656
0.790423356732191,0.7853042269,0.8537539633,0.8580254053,0.8241235267,0.6976398999,0.7720418804,0.891309581,0.9718795719,0.5135434314,0.8724443625,0.8330902536,1,0.9334652073,1.0054413691,0.8086674558,0,0.8047748869,0.8151851076,0.8721029209,0.7815961105,0.7653017742,0.7886988225,-0.3888107636,0.8291500908,0.5627762058
0.688092984960695,0.734748878,0.767021921,0.7505621004,0.7613158917,0.6589142195,0.7108164838,0.9165734254,0.9523806608,0.6587139879,0.8159145497,0.8257810399,0.8303473498,1,0.9657062516,0.7587977737,0,0.7655642953,0.7211223941,0.809515425,0.7430945331,0.7122726467,0.7268220677,-0.1046747472,0.8112161093,0.5072839286
0.653669701674428,0.6532786987,0.6879045665,0.7064308592,0.679172137,0.5923739347,0.6487080857,0.805980055,0.8720200255,0.4481436317,0.7313106761,0.7606972983,0.7101360147,0.7586839915,1,0.7669193314,0,0.67217493,0.6817930105,0.751347289,0.6807542781,0.678373544,0.699864931,1.1882659177,0.6914369675,0.3928103068
0.639972731528003,0.663723566,0.6631544643,0.6903417598,0.6624378748,0.5899493015,0.640922604,0.7383033026,0.8329185148,0.5342865792,0.6957185271,0.737900414,0.6818614858,0.7051518574,0.9091322781,1,0,0.6575200659,0.6606107083,0.7296287484,0.6844728745,0.721267153,0.6770584644,1.0456604128,0.6382481656,0.571643062
0,0,0,0,0,0,0,0,0,0,0,0,0,0,0,0,1,0,0,0,0,0,0,0,0,0
0.883329602841687,0.6548528657,0.789104158,0.8192745183,0.8538555923,0.7004468773,0.7481792525,0.6665524973,0.7340793424,0.3395055187,0.633704012,0.6041225849,0.6569246897,0.6999174006,0.7833070327,0.6423880006,0,1,0.8388822216,0.899435415,0.6044977244,0.7639706664,0.8344967451,1.0315679854,0.6140331134,0.3733287417
0.896750714713689,0.5802747377,0.8395363819,0.8883397489,0.8409577536,0.6654609826,0.6846227967,0.6048178951,0.6464418488,0.3410508343,0.6032330812,0.5866325636,0.5995784386,0.5917568597,0.7234875833,0.5854636604,0,0.7620042775,1,0.7971870959,0.5389937524,0.7329485847,0.8090202232,0.9551256384,0.5484000121,0.3728513458
0.823915293085974,0.6488532194,0.7815565125,0.8027258237,0.7942453867,0.6665651133,0.7526493661,0.6792280104,0.7352025595,0.3845871706,0.6764342105,0.6213260168,0.6374248086,0.6667825185,0.7876121519,0.6477020778,0,0.8062489344,0.7854774482,1,0.5827322845,0.7993380477,0.762694784,0.6554907369,0.5967059603,0.4585680789
0.779581042807017,0.8063933028,0.9199079141,0.8838545706,0.8466996398,0.7402599108,0.8219721225,1.011273715,1.0447889742,0.6260783421,0.8751354602,0.8263034286,0.8800688985,0.9523505721,1.0983678052,0.9160648732,0,0.8345201239,0.8220766609,0.9026989721,1,0.8130333874,0.8493431594,1.2635110281,0.8775759934,0.4554072507
0.795594288267907,0.6736471681,0.8309333039,0.800444546,0.7918167488,0.6976233468,0.7709334439,0.7865164452,0.7850111117,0.5306704791,0.6812890777,0.6620861439,0.6514115375,0.7433687562,0.851848871,0.6911426044,0,0.7466920633,0.7728886646,0.7914566979,0.6803964065,1,0.7819583999,0,0.6773763331,0
0.855330462998856,0.6031144367,0.8246128188,0.8188403093,0.8196564269,0.6445128408,0.6980802166,0.6560984939,0.7180256682,0.287896294,0.6261630432,0.6117454857,0.5974484132,0.6380634109,0.7504608113,0.6257141026,0,0.773203571,0.8356459327,0.7989191893,0.5756704841,0.7677948329,1,0,0.5956911178,0
1.37790925399683,0,1.1033412412,0.9490655698,0.5938956092,0.5578331092,0.6406143083,0.3046177841,0.4107313199,0,0,-0.0822684835,-0.0672273469,-0.0704168363,0.1615118978,0.7824625292,0,0.7322401996,1.0082291411,0.4691453448,0.4667963016,0,0,1,0.4366676168,0
0.616313753189694,0.6295632738,0.7013290501,0.6837215477,0.6711740489,0.5894745507,0.6717820517,0.8543697716,0.879612544,0.3098507099,0.7750138468,0.7199838186,0.7226063921,0.8193125971,0.8791606861,0.6901680396,0,0.6476633696,0.660949283,0.7189358944,0.6711041601,0.7272055387,0.6647104909,1.2049566522,1,0.4042421819
1.06275770154819,0,1.19814428,1.1817338396,0.7415540098,1.0677163195,0,1.0000890266,0.9532644976,0,0,0.829594056,1.0858283661,1.0645179933,0.6822626092,0.9813469943,0,0.6893322971,0.8964595671,0.5896375232,0.8798930671,0,0,0,0.9284713595,1
